C:\Users\cathe\Documents\NetBeansProjects\cathy\com.mycompany_ejercicio_war_1.0-SNAPSHOT\src\main\java\root\controller\Controller.java
C:\Users\cathe\Documents\NetBeansProjects\cathy\com.mycompany_ejercicio_war_1.0-SNAPSHOT\src\main\java\root\model\CalcularEdad.java
C:\Users\cathe\Documents\NetBeansProjects\cathy\com.mycompany_ejercicio_war_1.0-SNAPSHOT\src\main\java\com\mycompany\intentocalculadora\JAXRSConfiguration.java
C:\Users\cathe\Documents\NetBeansProjects\cathy\com.mycompany_ejercicio_war_1.0-SNAPSHOT\src\main\java\com\mycompany\intentocalculadora\resources\JavaEE8Resource.java
